…
Number of Homicides organized by cities

``` r
df_unsolved_homicide = df_homicide |>
  group_by(city_state) |>
  summarize(
    total_homicides = n(), 
    unsolved_homicides = 
      sum(str_detect(disposition, "without|No"))
  )
df_unsolved_homicide
```

    ## # A tibble: 51 × 3
    ##    city_state      total_homicides unsolved_homicides
    ##    <chr>                     <int>              <int>
    ##  1 Albuquerque, NM             378                146
    ##  2 Atlanta, GA                 973                373
    ##  3 Baltimore, MD              2827               1825
    ##  4 Baton Rouge, LA             424                196
    ##  5 Birmingham, AL              800                347
    ##  6 Boston, MA                  614                310
    ##  7 Buffalo, NY                 521                319
    ##  8 Charlotte, NC               687                206
    ##  9 Chicago, IL                5535               4073
    ## 10 Cincinnati, OH              694                309
    ## # ℹ 41 more rows
…
    ## Warning: There was 1 warning in `mutate()`.
    ## ℹ In argument: `estimate = map2(...)`.
    ## Caused by warning in `.f()`:
    ## ! Chi-squared approximation may be incorrect

``` r
df_unsolved_prop
```

    ## # A tibble: 51 × 4
    ##    city_state      estimate conf.low conf.high
    ##    <chr>              <dbl>    <dbl>     <dbl>
    ##  1 Albuquerque, NM    0.386    0.337     0.438
    ##  2 Atlanta, GA        0.383    0.353     0.415
    ##  3 Baltimore, MD      0.646    0.628     0.663
    ##  4 Baton Rouge, LA    0.462    0.414     0.511
    ##  5 Birmingham, AL     0.434    0.399     0.469
    ##  6 Boston, MA         0.505    0.465     0.545
    ##  7 Buffalo, NY        0.612    0.569     0.654
    ##  8 Charlotte, NC      0.300    0.266     0.336
    ##  9 Chicago, IL        0.736    0.724     0.747
    ## 10 Cincinnati, OH     0.445    0.408     0.483
    ## # ℹ 41 more rows
…
    group = map(filenames, str_extract, "[:alpha:]{3}(?=_)") |>
      as.character(),
    id = map(filenames, str_extract, "[:digit:]{2}") |> 
      as.numeric()
  ) |>
  pivot_longer(
    cols = week_1:week_8,
    names_to = "week",
    names_pattern = "week_(.)",
    values_to = "observation"
  )
df_study
```

    ## # A tibble: 160 × 4
    ##    group    id week  observation
    ##    <chr> <dbl> <chr>       <dbl>
    ##  1 con       1 1            0.2 
    ##  2 con       1 2           -1.31
    ##  3 con       1 3            0.66
    ##  4 con       1 4            1.96
    ##  5 con       1 5            0.23
    ##  6 con       1 6            1.09
    ##  7 con       1 7            0.05
    ##  8 con       1 8            1.94
    ##  9 con       2 1            1.13
    ## 10 con       2 2           -0.88
    ## # ℹ 150 more rows
…
